<?xml version="1.0" encoding="UTF-8" standalone="no"?>
<svg
   xmlns:dc="http://purl.org/dc/elements/1.1/"
   xmlns:cc="http://creativecommons.org/ns#"
   xmlns:rdf="http://www.w3.org/1999/02/22-rdf-syntax-ns#"
   xmlns:svg="http://www.w3.org/2000/svg"
   xmlns="http://www.w3.org/2000/svg"
   xmlns:sodipodi="http://sodipodi.sourceforge.net/DTD/sodipodi-0.dtd"
   xmlns:inkscape="http://www.inkscape.org/namespaces/inkscape"
   viewBox="0 0 88 100"
   id="svg2"
   version="1.1"
   inkscape:version="0.91 r13725"
   sodipodi:docname="css.svg"
   inkscape:export-filename="/Users/tom/Downloads/css.png"
   inkscape:export-xdpi="90"
   inkscape:export-ydpi="90">
  <metadata
     id="metadata18">
    <rdf:RDF>
      <cc:Work
         rdf:about="">
        <dc:format>image/svg+xml</dc:format>
        <dc:type
           rdf:resource="http://purl.org/dc/dcmitype/StillImage" />
        <dc:title>CSS Logo</dc:title>
      </cc:Work>
    </rdf:RDF>
  </metadata>
  <defs
     id="defs16" />
  <sodipodi:namedview
     pagecolor="#ffffff"
     bordercolor="#666666"
     borderopacity="1"
     objecttolerance="10"
     gridtolerance="10"
     guidetolerance="10"
     inkscape:pageopacity="0"
     inkscape:pageshadow="2"
     inkscape:window-width="1280"
     inkscape:window-height="751"
     id="namedview14"
     showgrid="false"
     inkscape:zoom="2.5673415"
     inkscape:cx="131.61316"
     inkscape:cy="80.513968"
     inkscape:window-x="0"
     inkscape:window-y="0"
     inkscape:window-maximized="0"
     inkscape:current-layer="svg2" />
  <title
     id="title4">CSS Logo</title>
  <g
     id="g11034"
     transform="matrix(0.29333333,0,0,0.29411765,5e-7,-5e-7)">
    <path
       style="fill:#0c73b8;fill-opacity:1"
       inkscape:connector-curvature="0"
       id="path6"
       d="M 27.272727,305.46875 0,0 300,0 272.72727,305.46875 149.66741,340" />
    <path
       style="fill:#30a9dc;fill-opacity:1"
       inkscape:connector-curvature="0"
       id="path8"
       d="m 150.33259,313.4375 99.11309,-27.22657 23.28159,-261.64061 -122.39468,0" />
    <path
       style="fill:#ecedee;fill-opacity:1"
       inkscape:connector-curvature="0"
       id="path10"
       d="m 150.33259,138.12501 -34.5898,0 3.32595,37.85156 31.26385,0 z m 0,-75.70313 -94.456759,0 3.325943,37.18749 91.130816,0 z m 0,173.32031 -42.57206,-11.28906 -2.66075,-29.88281 -37.250556,0 4.656319,59.10156 77.827047,21.25 z" />
    <path
       style="fill:#ffffff;fill-opacity:1"
       inkscape:connector-curvature="0"
       id="path12"
       d="m 150.33259,175.97657 45.89801,0 -4.65632,48.47656 -41.24169,11.28906 0,39.17969 76.49668,-21.25 17.2949,-191.25 -93.79158,0 0,37.18749 53.21508,0 -3.99113,38.51564 -49.22395,0 z" />
  </g>
</svg>
